leg,comp,searchtool,run,matshape,min,max,avg
#rchoice-vert-vec,clang8,ice-locus-opentuner.py,1,1024,2.66886,8.35109,3.84121
#rchoice-vert-vec,clang8,ice-locus-opentuner.py,1,2048,11.45101,19.42706,13.10024
#rchoice-vert-vec,clang8,ice-locus-opentuner.py,1,3072,31.34704,45.30501,34.24258
#rchoice-vert-vec,clang8,ice-locus-opentuner.py,1,4096,52.90389,84.39398,59.48038
#rchoice-vert-vec,clang8,ice-locus-opentuner.py,1,5120,76.50685,113.48701,84.27100
#rchoice-vert-vec,clang8,ice-locus-opentuner.py,1,6144,105.05605,159.89089,117.21835
#rchoice-vert-vec,clang8,ice-locus-opentuner.py,1,7168,141.98399,214.32018,157.54285
#rchoice-vert-vec,clang8,ice-locus-opentuner.py,1,8192,193.77208,285.41088,212.79202
#rchoice-vert-vec,icc18,ice-locus-opentuner.py,1,1024,2.80404,6.95896,3.66979
#rchoice-vert-vec,icc18,ice-locus-opentuner.py,1,2048,12.54487,19.98210,14.15920
#rchoice-vert-vec,icc18,ice-locus-opentuner.py,1,3072,33.26893,46.41104,36.16962
#rchoice-vert-vec,icc18,ice-locus-opentuner.py,1,4096,53.83897,82.99303,60.14204
#rchoice-vert-vec,icc18,ice-locus-opentuner.py,1,5120,82.06105,118.61992,89.73556
#rchoice-vert-vec,icc18,ice-locus-opentuner.py,1,6144,113.87897,167.85598,124.84531
#rchoice-vert-vec,icc18,ice-locus-opentuner.py,1,7168,151.55005,227.39887,169.03338
#rchoice-vert-vec,icc18,ice-locus-opentuner.py,1,8192,211.35092,307.95693,231.23016
#rchoice-vert-vec,gcc65,ice-locus-opentuner.py,1,1024,2.71010,8.53014,3.90086
#rchoice-vert-vec,gcc65,ice-locus-opentuner.py,1,2048,11.89995,20.35904,13.67898
#rchoice-vert-vec,gcc65,ice-locus-opentuner.py,1,3072,32.06396,45.47620,34.99780
#rchoice-vert-vec,gcc65,ice-locus-opentuner.py,1,4096,53.52378,84.56182,60.01854
#rchoice-vert-vec,gcc65,ice-locus-opentuner.py,1,5120,78.62401,118.67499,87.18557
#rchoice-vert-vec,gcc65,ice-locus-opentuner.py,1,6144,108.57797,164.27207,120.87703
#rchoice-vert-vec,gcc65,ice-locus-opentuner.py,1,7168,143.21303,224.04695,161.52835
#rchoice-vert-vec,gcc65,ice-locus-opentuner.py,1,8192,194.90695,285.12788,215.30976
cacheobliv,gcc65,ice-locus-opentuner.py,1,1024,2.43402,5.26500,3.01380
cacheobliv,gcc65,ice-locus-opentuner.py,1,2048,9.79996,17.04001,11.25660
cacheobliv,gcc65,ice-locus-opentuner.py,1,3072,21.85988,36.85284,25.20356
cacheobliv,gcc65,ice-locus-opentuner.py,1,4096,39.57105,67.27481,45.45498
cacheobliv,gcc65,ice-locus-opentuner.py,1,5120,64.26191,105.51286,72.84274
cacheobliv,gcc65,ice-locus-opentuner.py,1,6144,89.96296,149.72401,103.52077
cacheobliv,gcc65,ice-locus-opentuner.py,1,7168,120.28718,199.19109,138.18583
cacheobliv,gcc65,ice-locus-opentuner.py,1,8192,159.14392,277.71521,182.96938
cacheobliv,gcc65,ice-locus-opentuner.py,1,1024,2.53606,6.01292,3.24159
cacheobliv,gcc65,ice-locus-opentuner.py,1,2048,10.10990,16.86406,11.50246
cacheobliv,gcc65,ice-locus-opentuner.py,1,3072,23.62895,38.46288,27.78854
cacheobliv,gcc65,ice-locus-opentuner.py,1,4096,42.66286,68.60685,48.19736
cacheobliv,gcc65,ice-locus-opentuner.py,1,5120,65.10997,104.92611,74.30220
cacheobliv,gcc65,ice-locus-opentuner.py,1,6144,96.66514,155.70307,108.86378
cacheobliv,gcc65,ice-locus-opentuner.py,1,7168,128.32117,207.35288,145.97239
cacheobliv,gcc65,ice-locus-opentuner.py,1,8192,168.49995,286.24797,194.04078
cacheobliv,gcc65,ice-locus-opentuner.py,1,1024,2.78711,7.61795,3.79820
cacheobliv,gcc65,ice-locus-opentuner.py,1,2048,12.58683,19.55700,14.08796
cacheobliv,gcc65,ice-locus-opentuner.py,1,3072,28.99909,46.51189,32.57079
cacheobliv,gcc65,ice-locus-opentuner.py,1,4096,59.52597,87.84199,65.64260
cacheobliv,gcc65,ice-locus-opentuner.py,1,5120,86.33494,131.95300,96.11039
cacheobliv,gcc65,ice-locus-opentuner.py,1,6144,119.69185,188.91597,135.73155
cacheobliv,gcc65,ice-locus-opentuner.py,1,7168,223.14000,299.07990,240.44342
cacheobliv,gcc65,ice-locus-opentuner.py,1,8192,251.72591,365.51309,274.77684
cacheobliv,clang8,ice-locus-opentuner.py,1,1024,3.15595,6.57010,3.84545
cacheobliv,clang8,ice-locus-opentuner.py,1,2048,13.82113,21.65389,15.45877
cacheobliv,clang8,ice-locus-opentuner.py,1,3072,29.45900,46.03291,32.89618
cacheobliv,clang8,ice-locus-opentuner.py,1,4096,57.74999,86.19881,63.63640
cacheobliv,clang8,ice-locus-opentuner.py,1,5120,85.56080,132.35116,96.38462
cacheobliv,clang8,ice-locus-opentuner.py,1,6144,122.78509,188.77506,137.04419
cacheobliv,clang8,ice-locus-opentuner.py,1,7168,179.05688,261.07979,196.12374
cacheobliv,clang8,ice-locus-opentuner.py,1,8192,255.00298,369.72189,278.61576
cacheobliv,clang8,ice-locus-opentuner.py,1,1024,2.39301,4.17614,2.76403
cacheobliv,clang8,ice-locus-opentuner.py,1,2048,10.15186,16.24703,11.40900
cacheobliv,clang8,ice-locus-opentuner.py,1,3072,22.93086,37.30106,25.93260
cacheobliv,clang8,ice-locus-opentuner.py,1,4096,44.14201,72.00098,50.85497
cacheobliv,clang8,ice-locus-opentuner.py,1,5120,63.98296,102.10896,71.89760
cacheobliv,clang8,ice-locus-opentuner.py,1,6144,93.63103,150.64907,105.70283
cacheobliv,clang8,ice-locus-opentuner.py,1,7168,121.79804,198.16399,139.64143
cacheobliv,clang8,ice-locus-opentuner.py,1,8192,187.15715,293.04790,210.45780
cacheobliv,clang8,ice-locus-opentuner.py,1,1024,2.20704,6.06799,3.17478
cacheobliv,clang8,ice-locus-opentuner.py,1,2048,9.94205,16.79182,11.33575
cacheobliv,clang8,ice-locus-opentuner.py,1,3072,22.58515,37.24289,25.93875
cacheobliv,clang8,ice-locus-opentuner.py,1,4096,41.00895,68.07303,46.58823
cacheobliv,clang8,ice-locus-opentuner.py,1,5120,62.77895,101.60208,70.77241
cacheobliv,clang8,ice-locus-opentuner.py,1,6144,89.87808,148.35906,102.71883
cacheobliv,clang8,ice-locus-opentuner.py,1,7168,121.51599,198.61984,137.95838
cacheobliv,clang8,ice-locus-opentuner.py,1,8192,173.60902,287.06908,197.46246
cacheobliv,icc18,ice-locus-opentuner.py,1,1024,3.63100,7.16500,4.36380
cacheobliv,icc18,ice-locus-opentuner.py,1,2048,17.93000,25.07800,19.43720
cacheobliv,icc18,ice-locus-opentuner.py,1,3072,43.38700,56.68300,46.23000
cacheobliv,icc18,ice-locus-opentuner.py,1,4096,114.65500,143.54400,120.97520
cacheobliv,icc18,ice-locus-opentuner.py,1,5120,128.06900,163.13600,135.48360
cacheobliv,icc18,ice-locus-opentuner.py,1,6144,256.23300,321.01400,269.81540
cacheobliv,icc18,ice-locus-opentuner.py,1,7168,421.85300,523.94200,443.69800
cacheobliv,icc18,ice-locus-opentuner.py,1,8192,524.09400,636.29800,549.51120
cacheobliv,icc18,ice-locus-opentuner.py,1,1024,3.28398,4.92001,3.70240
cacheobliv,icc18,ice-locus-opentuner.py,1,2048,14.27197,21.13295,15.77840
cacheobliv,icc18,ice-locus-opentuner.py,1,3072,32.11212,49.39890,35.66780
cacheobliv,icc18,ice-locus-opentuner.py,1,4096,57.45602,87.87489,63.69715
cacheobliv,icc18,ice-locus-opentuner.py,1,5120,90.32702,136.39998,99.86801
cacheobliv,icc18,ice-locus-opentuner.py,1,6144,125.43488,194.63611,141.26344
cacheobliv,icc18,ice-locus-opentuner.py,1,7168,176.66698,265.06710,196.30499
cacheobliv,icc18,ice-locus-opentuner.py,1,8192,249.49598,364.77900,274.71261
cacheobliv,icc18,ice-locus-opentuner.py,1,1024,2.77400,5.41091,3.31135
cacheobliv,icc18,ice-locus-opentuner.py,1,2048,11.18994,18.18991,12.62736
cacheobliv,icc18,ice-locus-opentuner.py,1,3072,28.97000,43.51807,32.03983
cacheobliv,icc18,ice-locus-opentuner.py,1,4096,50.94886,79.86498,57.70774
cacheobliv,icc18,ice-locus-opentuner.py,1,5120,80.00088,120.46790,88.93018
cacheobliv,icc18,ice-locus-opentuner.py,1,6144,112.24604,174.46899,126.55401
cacheobliv,icc18,ice-locus-opentuner.py,1,7168,152.14682,231.36687,172.67857
cacheobliv,icc18,ice-locus-opentuner.py,1,8192,201.76482,314.26787,224.86396
cacheobliv,icc18,ice-locus-opentuner.py,1,1024,2.41995,5.42784,3.07498
cacheobliv,icc18,ice-locus-opentuner.py,1,2048,10.25200,18.28098,11.87263
cacheobliv,icc18,ice-locus-opentuner.py,1,3072,23.55599,38.61189,26.74661
cacheobliv,icc18,ice-locus-opentuner.py,1,4096,40.96198,71.56897,47.84956
cacheobliv,icc18,ice-locus-opentuner.py,1,5120,64.47411,104.37608,72.86983
cacheobliv,icc18,ice-locus-opentuner.py,1,6144,93.32705,152.01592,105.93038
cacheobliv,icc18,ice-locus-opentuner.py,1,7168,124.05014,200.85788,140.75499
cacheobliv,icc18,ice-locus-opentuner.py,1,8192,162.65202,276.18289,187.99057
#base,clang8,None,1,512,0.48590,1.23906,0.63858
base,clang8,None,1,1024,2.66099,7.52807,3.66340
base,clang8,None,1,1536,6.75297,12.57300,7.93638
base,clang8,None,1,2048,13.97109,22.91012,15.85560
base,clang8,None,1,2560,24.59908,35.07400,26.80478
base,clang8,None,1,3072,36.04102,52.80805,39.43763
base,clang8,None,1,3584,49.29805,72.20221,53.96724
base,clang8,None,1,4096,67.03305,97.00203,73.06705
base,clang8,None,1,4608,83.68206,121.24491,91.26239
base,clang8,None,1,5120,104.17008,151.14498,113.63082
base,clang8,None,1,5632,125.45395,182.33395,136.89260
base,clang8,None,1,6144,152.68111,220.90888,166.47882
base,clang8,None,1,6656,179.15392,260.29491,195.56336
base,clang8,None,1,7168,208.05311,302.52790,227.17719
base,clang8,None,1,7680,241.05906,353.11294,263.67521
base,clang8,None,1,8192,283.40888,409.68609,309.41682
#base,gcc65,None,1,512,0.51999,1.30415,0.68703
base,gcc65,None,1,1024,2.68793,8.48007,4.08154
base,gcc65,None,1,1536,6.64806,12.02893,7.78179
base,gcc65,None,1,2048,13.84592,21.72017,15.49263
base,gcc65,None,1,2560,24.62006,36.39698,27.05498
base,gcc65,None,1,3072,35.93802,52.18601,39.24980
base,gcc65,None,1,3584,49.52598,72.38579,54.14376
base,gcc65,None,1,4096,67.06715,96.36712,72.96586
base,gcc65,None,1,4608,83.53400,121.25087,91.14618
base,gcc65,None,1,5120,103.13106,150.78306,112.75344
base,gcc65,None,1,5632,125.95916,182.49083,137.35657
base,gcc65,None,1,6144,152.62389,220.27707,167.01264
base,gcc65,None,1,6656,178.66802,259.15194,194.83461
base,gcc65,None,1,7168,207.91698,301.78094,229.78220
base,gcc65,None,1,7680,239.99405,349.16997,262.15920
base,gcc65,None,1,8192,285.23707,410.28285,310.43100
#base,icc18,None,1,512,0.86000,1.93800,1.09280
base,icc18,None,1,1024,2.81000,6.47100,3.62540
base,icc18,None,1,1536,7.34800,13.19400,8.56380
base,icc18,None,1,2048,15.39100,23.16800,17.07000
base,icc18,None,1,2560,24.99300,36.14400,27.28080
base,icc18,None,1,3072,36.85600,53.43000,40.27100
base,icc18,None,1,3584,50.37000,72.85500,54.91280
base,icc18,None,1,4096,69.03900,98.59000,75.05700
base,icc18,None,1,4608,84.70200,122.73900,92.47580
base,icc18,None,1,5120,105.69000,152.46200,116.82200
base,icc18,None,1,5632,130.05200,186.35000,141.37200
base,icc18,None,1,6144,156.32200,224.39200,171.70780
base,icc18,None,1,6656,183.33400,263.69500,199.45600
base,icc18,None,1,7168,212.80800,306.98700,231.89120
base,icc18,None,1,7680,246.53100,354.79700,268.27120
base,icc18,None,1,8192,289.12200,414.80400,314.41020
#base,clang8,None,1,512,0.24700,0.76795,0.35295
base,clang8,None,1,1024,2.16198,6.66285,3.28856
base,clang8,None,1,1536,5.90396,11.98697,7.16462
base,clang8,None,1,2048,11.56592,19.72103,13.25436
base,clang8,None,1,2560,19.38105,31.16703,21.80839
base,clang8,None,1,3072,28.46098,45.09497,31.86522
base,clang8,None,1,3584,38.30314,61.67293,43.02177
base,clang8,None,1,4096,55.73702,86.08794,61.95436
base,clang8,None,1,4608,63.63010,101.91894,71.32940
base,clang8,None,1,5120,79.46301,127.12789,89.07175
base,clang8,None,1,5632,94.71202,151.69001,107.71704
base,clang8,None,1,6144,119.52496,191.84899,134.23057
base,clang8,None,1,6656,133.98385,215.56616,150.35996
base,clang8,None,1,7168,160.52818,255.59902,179.75206
base,clang8,None,1,7680,178.78485,288.70988,200.82278
base,clang8,None,1,8192,219.27619,352.82993,246.42758
#base,gcc65,None,1,512,0.51188,1.50704,0.71239
base,gcc65,None,1,1024,2.19679,7.44414,3.48082
base,gcc65,None,1,1536,5.92208,11.09600,6.98137
base,gcc65,None,1,2048,11.69300,19.62399,13.32860
base,gcc65,None,1,2560,19.54198,31.69107,22.01219
base,gcc65,None,1,3072,28.77998,45.93420,32.27601
base,gcc65,None,1,3584,38.41901,61.98001,43.20016
base,gcc65,None,1,4096,51.48888,86.45296,58.82301
base,gcc65,None,1,4608,63.67302,105.52597,72.09263
base,gcc65,None,1,5120,80.96099,128.49903,90.64560
base,gcc65,None,1,5632,94.42806,152.08292,106.08101
base,gcc65,None,1,6144,122.99299,192.66701,137.03861
base,gcc65,None,1,6656,134.15813,215.55185,150.64278
base,gcc65,None,1,7168,162.63700,258.36706,183.48761
base,gcc65,None,1,7680,180.14598,290.07888,202.34175
base,gcc65,None,1,8192,214.94603,359.92908,249.06683
#base,icc18,None,1,512,0.74600,1.40500,0.91320
base,icc18,None,1,1024,2.34300,6.97100,3.68620
base,icc18,None,1,1536,6.13400,10.38300,7.00480
base,icc18,None,1,2048,11.68800,19.68400,13.31540
base,icc18,None,1,2560,19.23500,31.43800,21.74060
base,icc18,None,1,3072,28.27400,45.31300,31.80020
base,icc18,None,1,3584,38.88200,61.96200,43.60540
base,icc18,None,1,4096,52.15500,85.51800,58.89400
base,icc18,None,1,4608,64.60700,102.71800,72.27580
base,icc18,None,1,5120,79.49600,126.96100,89.10400
base,icc18,None,1,5632,96.60700,153.41900,107.99780
base,icc18,None,1,6144,118.99100,196.18200,135.82140
base,icc18,None,1,6656,136.58100,217.52700,152.85260
base,icc18,None,1,7168,159.58200,254.32300,178.63080
base,icc18,None,1,7680,178.05200,288.35200,200.86020
base,icc18,None,1,8192,209.59100,346.72300,237.17860
#base,clang8,None,1,512,1.16706,1.96886,1.35717
base,clang8,None,1,1024,6.58011,11.43003,7.57785
base,clang8,None,1,1536,16.83903,23.11897,18.11242
base,clang8,None,1,2048,34.80506,42.40608,36.35621
base,clang8,None,1,2560,59.14593,70.11199,61.37962
base,clang8,None,1,3072,86.24792,102.09990,89.44979
base,clang8,None,1,3584,123.82603,146.23404,128.44601
base,clang8,None,1,4096,169.00587,198.54712,175.83680
base,clang8,None,1,4608,221.22502,258.62694,228.84779
base,clang8,None,1,5120,274.62101,330.17993,286.05399
base,clang8,None,1,5632,337.65507,395.32685,349.47081
base,clang8,None,1,6144,410.14481,480.25298,424.34220
base,clang8,None,1,6656,484.63702,574.09501,502.89941
base,clang8,None,1,7168,569.58008,666.20803,591.82544
base,clang8,None,1,7680,656.33893,768.00513,678.80402
base,clang8,None,1,8192,761.80601,888.60989,789.54277
#base,gcc65,None,1,512,1.80507,2.54393,1.95818
base,gcc65,None,1,1024,6.43802,13.38387,7.90973
base,gcc65,None,1,1536,16.75820,24.40190,18.33000
base,gcc65,None,1,2048,35.19201,43.07723,36.79461
base,gcc65,None,1,2560,59.18598,70.24288,61.43279
base,gcc65,None,1,3072,87.49580,104.06303,90.88240
base,gcc65,None,1,3584,124.22490,146.53897,128.74417
base,gcc65,None,1,4096,169.62099,198.38500,175.50693
base,gcc65,None,1,4608,218.23621,255.92399,225.99521
base,gcc65,None,1,5120,272.88795,318.87412,282.18446
base,gcc65,None,1,5632,335.98709,394.74010,347.81022
base,gcc65,None,1,6144,402.68517,475.25716,417.21325
base,gcc65,None,1,6656,480.68285,560.42314,496.73424
base,gcc65,None,1,7168,559.76820,656.74186,580.52502
base,gcc65,None,1,7680,660.22110,768.60404,682.00884
base,gcc65,None,1,8192,761.43599,883.43501,786.03382
#base,icc18,None,1,512,0.87000,2.64100,1.25020
base,icc18,None,1,1024,7.38600,13.77600,8.73500
base,icc18,None,1,1536,19.03200,26.66200,20.59820
base,icc18,None,1,2048,38.52600,45.83100,40.11760
base,icc18,None,1,2560,60.15200,73.31800,62.89800
base,icc18,None,1,3072,90.76700,108.67000,96.03360
base,icc18,None,1,3584,130.58500,157.79100,136.13660
base,icc18,None,1,4096,192.45600,226.80900,199.50300
base,icc18,None,1,4608,230.39100,276.11600,239.65520
base,icc18,None,1,5120,295.09000,347.44900,305.71500
base,icc18,None,1,5632,351.20200,424.10800,365.99060
base,icc18,None,1,6144,442.78200,514.79200,457.46880
base,icc18,None,1,6656,505.69100,604.26200,526.43680
base,icc18,None,1,7168,599.93400,704.54700,622.98600
base,icc18,None,1,7680,692.48800,831.73600,721.97600
base,icc18,None,1,8192,883.85500,1004.84800,908.90840
rchoice-vert-vec,clang8,ice-locus-opentuner.py,1,1024,2.42996,3.87096,2.79179
rchoice-vert-vec,clang8,ice-locus-opentuner.py,1,2048,9.84502,16.49785,11.19375
rchoice-vert-vec,clang8,ice-locus-opentuner.py,1,3072,23.09108,36.71694,25.83761
rchoice-vert-vec,clang8,ice-locus-opentuner.py,1,4096,45.31503,70.87207,50.63062
rchoice-vert-vec,clang8,ice-locus-opentuner.py,1,5120,63.10606,101.59612,71.25721
rchoice-vert-vec,clang8,ice-locus-opentuner.py,1,6144,90.17396,149.89495,103.50060
rchoice-vert-vec,clang8,ice-locus-opentuner.py,1,7168,119.92002,198.42219,137.51583
rchoice-vert-vec,clang8,ice-locus-opentuner.py,1,8192,171.08893,280.54404,195.00842
rchoice-vert-vec,gcc65,ice-locus-opentuner.py,1,1024,2.25902,3.92818,2.71840
rchoice-vert-vec,gcc65,ice-locus-opentuner.py,1,2048,10.39004,17.40384,11.82060
rchoice-vert-vec,gcc65,ice-locus-opentuner.py,1,3072,23.33117,37.75597,26.40643
rchoice-vert-vec,gcc65,ice-locus-opentuner.py,1,4096,41.62502,69.20218,47.20368
rchoice-vert-vec,gcc65,ice-locus-opentuner.py,1,5120,63.29203,104.44307,72.60261
rchoice-vert-vec,gcc65,ice-locus-opentuner.py,1,6144,91.71200,149.77098,103.47304
rchoice-vert-vec,gcc65,ice-locus-opentuner.py,1,7168,120.35584,197.68190,137.27818
rchoice-vert-vec,gcc65,ice-locus-opentuner.py,1,8192,164.84904,275.48003,187.90002
rchoice-vert-vec,icc18,ice-locus-opentuner.py,1,1024,2.23398,5.60594,3.03440
rchoice-vert-vec,icc18,ice-locus-opentuner.py,1,2048,10.18500,17.10606,11.59315
rchoice-vert-vec,icc18,ice-locus-opentuner.py,1,3072,23.62394,37.45198,26.46842
rchoice-vert-vec,icc18,ice-locus-opentuner.py,1,4096,42.16313,69.44203,48.03863
rchoice-vert-vec,icc18,ice-locus-opentuner.py,1,5120,65.63592,106.82201,74.95999
rchoice-vert-vec,icc18,ice-locus-opentuner.py,1,6144,95.92700,157.05705,109.08203
rchoice-vert-vec,icc18,ice-locus-opentuner.py,1,7168,121.24395,202.52323,139.28366
rchoice-vert-vec,icc18,ice-locus-opentuner.py,1,8192,164.95895,279.09112,188.63702
#thunder_clang8_transp_rchoice-vert-vec_none_20200427160710.txt
rchoice-vert-vec,clang8,ice-locus-opentuner.py,1,1024,2.42996,3.87096,2.79179
rchoice-vert-vec,clang8,ice-locus-opentuner.py,1,2048,9.84502,16.49785,11.19375
rchoice-vert-vec,clang8,ice-locus-opentuner.py,1,3072,23.09108,36.71694,25.83761
rchoice-vert-vec,clang8,ice-locus-opentuner.py,1,4096,45.31503,70.87207,50.63062
rchoice-vert-vec,clang8,ice-locus-opentuner.py,1,5120,63.10606,101.59612,71.25721
rchoice-vert-vec,clang8,ice-locus-opentuner.py,1,6144,90.17396,149.89495,103.50060
rchoice-vert-vec,clang8,ice-locus-opentuner.py,1,7168,119.92002,198.42219,137.51583
rchoice-vert-vec,clang8,ice-locus-opentuner.py,1,8192,171.08893,280.54404,195.00842
#thunder_gcc65_transp_rchoice-vert-vec_none_20200427165629.txt
rchoice-vert-vec,gcc65,ice-locus-opentuner.py,1,1024,2.25902,3.92818,2.71840
rchoice-vert-vec,gcc65,ice-locus-opentuner.py,1,2048,10.39004,17.40384,11.82060
rchoice-vert-vec,gcc65,ice-locus-opentuner.py,1,3072,23.33117,37.75597,26.40643
rchoice-vert-vec,gcc65,ice-locus-opentuner.py,1,4096,41.62502,69.20218,47.20368
rchoice-vert-vec,gcc65,ice-locus-opentuner.py,1,5120,63.29203,104.44307,72.60261
rchoice-vert-vec,gcc65,ice-locus-opentuner.py,1,6144,91.71200,149.77098,103.47304
rchoice-vert-vec,gcc65,ice-locus-opentuner.py,1,7168,120.35584,197.68190,137.27818
rchoice-vert-vec,gcc65,ice-locus-opentuner.py,1,8192,164.84904,275.48003,187.90002
#thunder_icc18_transp_rchoice-vert-vec_none_20200427161824.txt
rchoice-vert-vec,icc18,ice-locus-opentuner.py,1,1024,2.23398,5.60594,3.03440
rchoice-vert-vec,icc18,ice-locus-opentuner.py,1,2048,10.18500,17.10606,11.59315
rchoice-vert-vec,icc18,ice-locus-opentuner.py,1,3072,23.62394,37.45198,26.46842
rchoice-vert-vec,icc18,ice-locus-opentuner.py,1,4096,42.16313,69.44203,48.03863
rchoice-vert-vec,icc18,ice-locus-opentuner.py,1,5120,65.63592,106.82201,74.95999
rchoice-vert-vec,icc18,ice-locus-opentuner.py,1,6144,95.92700,157.05705,109.08203
rchoice-vert-vec,icc18,ice-locus-opentuner.py,1,7168,121.24395,202.52323,139.28366
rchoice-vert-vec,icc18,ice-locus-opentuner.py,1,8192,164.95895,279.09112,188.63702
#thunder_clang8_transp_rchoice-vert-rec_none_20200427224009.txt
rchoice-vert-rec,clang8,ice-locus-hyperopt.py,1,1024,2.16889,3.89004,2.63557
rchoice-vert-rec,clang8,ice-locus-hyperopt.py,1,2048,9.80401,17.42005,11.33838
rchoice-vert-rec,clang8,ice-locus-hyperopt.py,1,3072,22.05205,36.54599,25.16441
rchoice-vert-rec,clang8,ice-locus-hyperopt.py,1,4096,40.36093,65.25397,46.33441
rchoice-vert-rec,clang8,ice-locus-hyperopt.py,1,5120,60.70495,102.23603,69.95225
rchoice-vert-rec,clang8,ice-locus-hyperopt.py,1,6144,89.96296,150.41208,103.46384
rchoice-vert-rec,clang8,ice-locus-hyperopt.py,1,7168,119.75503,204.80394,139.15882
rchoice-vert-rec,clang8,ice-locus-hyperopt.py,1,8192,156.42095,285.88915,184.27882
#thunder_gcc65_transp_rchoice-vert-rec_none_20200430004353.txt
rchoice-vert-rec,gcc65,ice-locus-hyperopt.py,1,1024,2.21896,3.96585,2.69017
rchoice-vert-rec,gcc65,ice-locus-hyperopt.py,1,2048,9.66191,17.38691,11.23519
rchoice-vert-rec,gcc65,ice-locus-hyperopt.py,1,3072,22.64404,37.99391,26.08099
rchoice-vert-rec,gcc65,ice-locus-hyperopt.py,1,4096,39.76202,67.82985,46.25878
rchoice-vert-rec,gcc65,ice-locus-hyperopt.py,1,5120,61.05399,105.41892,70.86401
rchoice-vert-rec,gcc65,ice-locus-hyperopt.py,1,6144,87.94594,148.82994,102.20380
rchoice-vert-rec,gcc65,ice-locus-hyperopt.py,1,7168,121.72794,199.69797,139.61577
rchoice-vert-rec,gcc65,ice-locus-hyperopt.py,1,8192,157.75800,263.16023,179.95944
#thunder_icc18_transp_rchoice-vert-rec_none_202004172142.txt
rchoice-vert-rec,icc18,ice-locus-hyperopt.py,1,1024,4.40400,7.98700,6.08040
rchoice-vert-rec,icc18,ice-locus-hyperopt.py,1,2048,14.41479,22.32480,16.03293
rchoice-vert-rec,icc18,ice-locus-hyperopt.py,1,3072,32.02987,47.45984,35.19354
rchoice-vert-rec,icc18,ice-locus-hyperopt.py,1,4096,69.39793,91.77899,74.12920
rchoice-vert-rec,icc18,ice-locus-hyperopt.py,1,5120,103.66106,138.37409,111.03539
rchoice-vert-rec,icc18,ice-locus-hyperopt.py,1,6144,146.83700,201.32589,159.46736
rchoice-vert-rec,icc18,ice-locus-hyperopt.py,1,7168,229.29406,323.49491,252.40960
rchoice-vert-rec,icc18,ice-locus-hyperopt.py,1,8192,436.59592,555.27711,464.11843
#thunder_icc18_transp_rchoice-vert-rec_none_20200428234002.txt
rchoice-vert-rec,icc18,ice-locus-hyperopt.py,1,1024,2.32000,4.25500,2.82540
rchoice-vert-rec,icc18,ice-locus-hyperopt.py,1,2048,10.21200,17.22200,11.62560
rchoice-vert-rec,icc18,ice-locus-hyperopt.py,1,3072,23.10000,38.09200,26.38660
rchoice-vert-rec,icc18,ice-locus-hyperopt.py,1,4096,40.86995,66.91694,46.56520
rchoice-vert-rec,icc18,ice-locus-hyperopt.py,1,5120,61.90991,105.04079,72.14274
rchoice-vert-rec,icc18,ice-locus-hyperopt.py,1,6144,89.49804,156.44503,104.18200
rchoice-vert-rec,icc18,ice-locus-hyperopt.py,1,7168,119.99700,206.00200,139.41880
rchoice-vert-rec,icc18,ice-locus-hyperopt.py,1,8192,165.60000,284.48600,189.75520
