[     0s]    INFO OpenTunerToolLocus: Run cfg_id: 1 time: 786.26895 cc: X cfg: 9: tileI = 8, 15: tileK = 4, 21: tileJ = 2, 69: sche = static, 75: chu = 21, 93: OrBlock = 0
[     0s]    INFO OpenTunerToolLocus: Run cfg_id: 6 time: 748.72589 cc: X cfg: 9: tileI = 128, 15: tileK = 256, 21: tileJ = 2, 69: sche = static, 75: chu = 21, 93: OrBlock = 0
[     0s]    INFO OpenTunerToolLocus: Run cfg_id: 7 time: 708.44388 cc: X cfg: 9: tileI = 4, 15: tileK = 32, 21: tileJ = 16, 69: sche = static, 75: chu = 12, 93: OrBlock = 0
[     0s]    INFO OpenTunerToolLocus: Run cfg_id: 37 time: 370.93401 cc: X cfg: 9: tileI = 4, 15: tileK = 16, 21: tileJ = 64, 69: sche = dynamic, 75: chu = 12, 93: OrBlock = 0
[     0s]    INFO OpenTunerToolLocus: Run cfg_id: 38 time: 373.5292 cc: X cfg: 9: tileI = 4, 15: tileK = 16, 21: tileJ = 64, 69: sche = dynamic, 75: chu = 12, 93: OrBlock = 1
[     0s]    INFO OpenTunerToolLocus: Run cfg_id: 8 time: 194.98086 cc: X cfg: 9: tileI = 128, 15: tileK = 8, 21: tileJ = 128, 69: sche = static, 75: chu = 26, 93: OrBlock = 0
[     0s]    INFO OpenTunerToolLocus: Run cfg_id: 2 time: 1006.05798 cc: X cfg: 9: tileI = 128, 15: tileK = 128, 21: tileJ = 8, 69: sche = static, 75: chu = 4, 93: OrBlock = 1
[     0s]    INFO OpenTunerToolLocus: Run cfg_id: 39 time: 229.76398 cc: X cfg: 9: tileI = 128, 15: tileK = 4, 21: tileJ = 128, 69: sche = dynamic, 75: chu = 26, 93: OrBlock = 0
[     0s]    INFO OpenTunerToolLocus: Run cfg_id: 9 time: 1144.37103 cc: X cfg: 9: tileI = 128, 15: tileK = 512, 21: tileJ = 64, 69: sche = dynamic, 75: chu = 13, 93: OrBlock = 1
[     0s]    INFO OpenTunerToolLocus: Run cfg_id: 10 time: 5677.57702 cc: X cfg: 9: tileI = 512, 15: tileK = 8, 21: tileJ = 2, 69: sche = static, 75: chu = 28, 93: OrBlock = 1
[     0s]    INFO OpenTunerToolLocus: Run cfg_id: 3 time: 271.12818 cc: X cfg: 9: tileI = 16, 15: tileK = 2, 21: tileJ = 512, 69: sche = dynamic, 75: chu = 3, 93: OrBlock = 0
[     0s]    INFO OpenTunerToolLocus: Run cfg_id: 40 time: 197.1581 cc: X cfg: 9: tileI = 64, 15: tileK = 8, 21: tileJ = 128, 69: sche = static, 75: chu = 22, 93: OrBlock = 0
[     0s]    INFO OpenTunerToolLocus: Run cfg_id: 41 time: 200.24109 cc: X cfg: 9: tileI = 16, 15: tileK = 8, 21: tileJ = 128, 69: sche = static, 75: chu = 26, 93: OrBlock = 0
[     0s]    INFO OpenTunerToolLocus: Run cfg_id: 11 time: 192.78097 cc: X cfg: 9: tileI = 64, 15: tileK = 8, 21: tileJ = 16, 69: sche = static, 75: chu = 19, 93: OrBlock = 0
[     0s]    INFO OpenTunerToolLocus: Run cfg_id: 12 time: 459.91397 cc: X cfg: 9: tileI = 16, 15: tileK = 512, 21: tileJ = 8, 69: sche = static, 75: chu = 26, 93: OrBlock = 0
[     0s]    INFO OpenTunerToolLocus: Run cfg_id: 13 time: 292.36984 cc: X cfg: 9: tileI = 16, 15: tileK = 128, 21: tileJ = 256, 69: sche = dynamic, 75: chu = 25, 93: OrBlock = 1
[     0s]    INFO OpenTunerToolLocus: Run cfg_id: 14 time: 820.24288 cc: X cfg: 9: tileI = 4, 15: tileK = 512, 21: tileJ = 2, 69: sche = dynamic, 75: chu = 26, 93: OrBlock = 0
[     0s]    INFO OpenTunerToolLocus: Run cfg_id: 15 time: 746.76704 cc: X cfg: 9: tileI = 128, 15: tileK = 512, 21: tileJ = 8, 69: sche = static, 75: chu = 5, 93: OrBlock = 1
[     0s]    INFO OpenTunerToolLocus: Run cfg_id: 4 time: 3491.38188 cc: X cfg: 9: tileI = 256, 15: tileK = 16, 21: tileJ = 4, 69: sche = static, 75: chu = 19, 93: OrBlock = 1
[     0s]    INFO OpenTunerToolLocus: Run cfg_id: 42 time: 152.45914 cc: X cfg: 9: tileI = 128, 15: tileK = 64, 21: tileJ = 16, 69: sche = static, 75: chu = 4, 93: OrBlock = 0
[     0s]    INFO OpenTunerToolLocus: Run cfg_id: 43 time: 150.67506 cc: X cfg: 9: tileI = 128, 15: tileK = 64, 21: tileJ = 16, 69: sche = dynamic, 75: chu = 4, 93: OrBlock = 0
[     0s]    INFO OpenTunerToolLocus: Run cfg_id: 44 time: 197.09182 cc: X cfg: 9: tileI = 32, 15: tileK = 64, 21: tileJ = 16, 69: sche = dynamic, 75: chu = 4, 93: OrBlock = 0
[     0s]    INFO OpenTunerToolLocus: Run cfg_id: 45 time: 406.82697 cc: X cfg: 9: tileI = 8, 15: tileK = 64, 21: tileJ = 16, 69: sche = dynamic, 75: chu = 4, 93: OrBlock = 0
[     0s]    INFO OpenTunerToolLocus: Run cfg_id: 46 time: 555.15599 cc: X cfg: 9: tileI = 128, 15: tileK = 64, 21: tileJ = 4, 69: sche = dynamic, 75: chu = 4, 93: OrBlock = 0
[     0s]    INFO OpenTunerToolLocus: Run cfg_id: 47 time: 137.6822 cc: X cfg: 9: tileI = 64, 15: tileK = 256, 21: tileJ = 16, 69: sche = dynamic, 75: chu = 4, 93: OrBlock = 0
[     0s]    INFO OpenTunerToolLocus: Run cfg_id: 48 time: 138.72194 cc: X cfg: 9: tileI = 64, 15: tileK = 256, 21: tileJ = 16, 69: sche = dynamic, 75: chu = 11, 93: OrBlock = 0
[     0s]    INFO OpenTunerToolLocus: Run cfg_id: 49 time: 153.27787 cc: X cfg: 9: tileI = 64, 15: tileK = 256, 21: tileJ = 16, 69: sche = dynamic, 75: chu = 5, 93: OrBlock = 0
[     0s]    INFO OpenTunerToolLocus: Run cfg_id: 50 time: 129.34613 cc: X cfg: 9: tileI = 64, 15: tileK = 256, 21: tileJ = 32, 69: sche = dynamic, 75: chu = 4, 93: OrBlock = 0
[     0s]    INFO OpenTunerToolLocus: Run cfg_id: 51 time: 305.17292 cc: X cfg: 9: tileI = 8, 15: tileK = 256, 21: tileJ = 32, 69: sche = dynamic, 75: chu = 4, 93: OrBlock = 0
[     0s]    INFO OpenTunerToolLocus: Run cfg_id: 52 time: 124.71986 cc: X cfg: 9: tileI = 64, 15: tileK = 512, 21: tileJ = 32, 69: sche = dynamic, 75: chu = 4, 93: OrBlock = 0
[     0s]    INFO OpenTunerToolLocus: Run cfg_id: 53 time: 180.50694 cc: X cfg: 9: tileI = 64, 15: tileK = 512, 21: tileJ = 512, 69: sche = dynamic, 75: chu = 12, 93: OrBlock = 0
[     0s]    INFO OpenTunerToolLocus: Run cfg_id: 54 time: 124.02487 cc: X cfg: 9: tileI = 64, 15: tileK = 512, 21: tileJ = 32, 69: sche = dynamic, 75: chu = 15, 93: OrBlock = 0
[     0s]    INFO OpenTunerToolLocus: Run cfg_id: 55 time: 168.84995 cc: X cfg: 9: tileI = 64, 15: tileK = 16, 21: tileJ = 32, 69: sche = dynamic, 75: chu = 15, 93: OrBlock = 0
[     0s]    INFO OpenTunerToolLocus: Run cfg_id: 56 time: 228.38402 cc: X cfg: 9: tileI = 16, 15: tileK = 512, 21: tileJ = 32, 69: sche = dynamic, 75: chu = 15, 93: OrBlock = 0
[     0s]    INFO OpenTunerToolLocus: Run cfg_id: 57 time: 468.98198 cc: X cfg: 9: tileI = 64, 15: tileK = 512, 21: tileJ = 32, 69: sche = static, 75: chu = 15, 93: OrBlock = 1
[     0s]    INFO OpenTunerToolLocus: Run cfg_id: 58 time: 530.21717 cc: X cfg: 9: tileI = 4, 15: tileK = 512, 21: tileJ = 32, 69: sche = dynamic, 75: chu = 15, 93: OrBlock = 0
[     0s]    INFO OpenTunerToolLocus: Run cfg_id: 59 time: 285.40492 cc: X cfg: 9: tileI = 4, 15: tileK = 16, 21: tileJ = 256, 69: sche = dynamic, 75: chu = 15, 93: OrBlock = 0
[     0s]    INFO OpenTunerToolLocus: Run cfg_id: 60 time: 120.8179 cc: X cfg: 9: tileI = 128, 15: tileK = 512, 21: tileJ = 32, 69: sche = dynamic, 75: chu = 15, 93: OrBlock = 0
[     0s]    INFO OpenTunerToolLocus: Run cfg_id: 61 time: 1470.1829 cc: X cfg: 9: tileI = 256, 15: tileK = 8, 21: tileJ = 32, 69: sche = dynamic, 75: chu = 15, 93: OrBlock = 0
[     0s]    INFO OpenTunerToolLocus: Run cfg_id: 62 time: 114.84194 cc: X cfg: 9: tileI = 128, 15: tileK = 256, 21: tileJ = 32, 69: sche = dynamic, 75: chu = 15, 93: OrBlock = 0
[     0s]    INFO OpenTunerToolLocus: Run cfg_id: 63 time: 123.75903 cc: X cfg: 9: tileI = 128, 15: tileK = 256, 21: tileJ = 32, 69: sche = dynamic, 75: chu = 11, 93: OrBlock = 0
[     0s]    INFO OpenTunerToolLocus: Run cfg_id: 64 time: 796.22793 cc: X cfg: 9: tileI = 128, 15: tileK = 256, 21: tileJ = 32, 69: sche = dynamic, 75: chu = 14, 93: OrBlock = 1
[     0s]    INFO OpenTunerToolLocus: Run cfg_id: 65 time: 118.222 cc: X cfg: 9: tileI = 128, 15: tileK = 128, 21: tileJ = 32, 69: sche = static, 75: chu = 15, 93: OrBlock = 0
[     0s]    INFO OpenTunerToolLocus: Run cfg_id: 66 time: 116.20688 cc: X cfg: 9: tileI = 128, 15: tileK = 256, 21: tileJ = 32, 69: sche = static, 75: chu = 24, 93: OrBlock = 0
[     0s]    INFO OpenTunerToolLocus: Run cfg_id: 67 time: 174.2239 cc: X cfg: 9: tileI = 128, 15: tileK = 8, 21: tileJ = 32, 69: sche = dynamic, 75: chu = 15, 93: OrBlock = 0
[     0s]    INFO OpenTunerToolLocus: Run cfg_id: 68 time: 829.92387 cc: X cfg: 9: tileI = 128, 15: tileK = 256, 21: tileJ = 32, 69: sche = dynamic, 75: chu = 15, 93: OrBlock = 1
[     0s]    INFO OpenTunerToolLocus: Run cfg_id: 69 time: 981.01997 cc: X cfg: 9: tileI = 128, 15: tileK = 256, 21: tileJ = 16, 69: sche = dynamic, 75: chu = 15, 93: OrBlock = 1
[     0s]    INFO OpenTunerToolLocus: Run cfg_id: 70 time: 1155.44701 cc: X cfg: 9: tileI = 2, 15: tileK = 256, 21: tileJ = 32, 69: sche = dynamic, 75: chu = 15, 93: OrBlock = 0
[     0s]    INFO OpenTunerToolLocus: Run cfg_id: 71 time: 550.82989 cc: X cfg: 9: tileI = 128, 15: tileK = 256, 21: tileJ = 32, 69: sche = dynamic, 75: chu = 10, 93: OrBlock = 1
[     0s]    INFO OpenTunerToolLocus: Run cfg_id: 16 time: 1063.51185 cc: X cfg: 9: tileI = 256, 15: tileK = 64, 21: tileJ = 16, 69: sche = static, 75: chu = 22, 93: OrBlock = 1
[     0s]    INFO OpenTunerToolLocus: Run cfg_id: 72 time: 114.86697 cc: X cfg: 9: tileI = 128, 15: tileK = 256, 21: tileJ = 32, 69: sche = static, 75: chu = 25, 93: OrBlock = 0
[     0s]    INFO OpenTunerToolLocus: Run cfg_id: 73 time: 223.61612 cc: X cfg: 9: tileI = 512, 15: tileK = 256, 21: tileJ = 32, 69: sche = dynamic, 75: chu = 15, 93: OrBlock = 0
[     0s]    INFO OpenTunerToolLocus: Run cfg_id: 74 time: 1927.18196 cc: X cfg: 9: tileI = 128, 15: tileK = 2, 21: tileJ = 32, 69: sche = dynamic, 75: chu = 18, 93: OrBlock = 1
[     0s]    INFO OpenTunerToolLocus: Run cfg_id: 17 time: 816.66994 cc: X cfg: 9: tileI = 2, 15: tileK = 128, 21: tileJ = 64, 69: sche = dynamic, 75: chu = 12, 93: OrBlock = 1
[     0s]    INFO OpenTunerToolLocus: Run cfg_id: 75 time: 474.51186 cc: X cfg: 9: tileI = 64, 15: tileK = 256, 21: tileJ = 4, 69: sche = dynamic, 75: chu = 15, 93: OrBlock = 0
[     0s]    INFO OpenTunerToolLocus: Run cfg_id: 76 time: 366.85395 cc: X cfg: 9: tileI = 8, 15: tileK = 256, 21: tileJ = 32, 69: sche = dynamic, 75: chu = 15, 93: OrBlock = 0
[     0s]    INFO OpenTunerToolLocus: Run cfg_id: 5 time: 539.80303 cc: X cfg: 9: tileI = 4, 15: tileK = 4, 21: tileJ = 8, 69: sche = static, 75: chu = 32, 93: OrBlock = 0
[     0s]    INFO OpenTunerToolLocus: Run cfg_id: 77 time: 305.95398 cc: X cfg: 9: tileI = 8, 15: tileK = 256, 21: tileJ = 32, 69: sche = dynamic, 75: chu = 26, 93: OrBlock = 0
[     0s]    INFO OpenTunerToolLocus: Run cfg_id: 18 time: 237.10585 cc: X cfg: 9: tileI = 8, 15: tileK = 4, 21: tileJ = 64, 69: sche = dynamic, 75: chu = 5, 93: OrBlock = 1
[     0s]    INFO OpenTunerToolLocus: Run cfg_id: 78 time: 115.41009 cc: X cfg: 9: tileI = 128, 15: tileK = 256, 21: tileJ = 32, 69: sche = static, 75: chu = 15, 93: OrBlock = 0
[     0s]    INFO OpenTunerToolLocus: Run cfg_id: 19 time: 749.60709 cc: X cfg: 9: tileI = 4, 15: tileK = 2, 21: tileJ = 8, 69: sche = static, 75: chu = 18, 93: OrBlock = 1
[     0s]    INFO OpenTunerToolLocus: Run cfg_id: 79 time: 149.46818 cc: X cfg: 9: tileI = 128, 15: tileK = 16, 21: tileJ = 32, 69: sche = dynamic, 75: chu = 15, 93: OrBlock = 0
[     0s]    INFO OpenTunerToolLocus: Run cfg_id: 80 time: 516.49117 cc: X cfg: 9: tileI = 128, 15: tileK = 256, 21: tileJ = 4, 69: sche = dynamic, 75: chu = 15, 93: OrBlock = 0
[     0s]    INFO OpenTunerToolLocus: Run cfg_id: 81 time: 807.98697 cc: X cfg: 9: tileI = 128, 15: tileK = 512, 21: tileJ = 32, 69: sche = dynamic, 75: chu = 14, 93: OrBlock = 1
[     0s]    INFO OpenTunerToolLocus: Run cfg_id: 82 time: 686.46097 cc: X cfg: 9: tileI = 2, 15: tileK = 2, 21: tileJ = 256, 69: sche = static, 75: chu = 10, 93: OrBlock = 1
[     0s]    INFO OpenTunerToolLocus: Run cfg_id: 83 time: 144.32693 cc: X cfg: 9: tileI = 128, 15: tileK = 32, 21: tileJ = 32, 69: sche = dynamic, 75: chu = 15, 93: OrBlock = 0
[     0s]    INFO OpenTunerToolLocus: Run cfg_id: 20 time: 273.34189 cc: X cfg: 9: tileI = 4, 15: tileK = 4, 21: tileJ = 32, 69: sche = static, 75: chu = 9, 93: OrBlock = 0
[     0s]    INFO OpenTunerToolLocus: Run cfg_id: 84 time: 194.78083 cc: X cfg: 9: tileI = 16, 15: tileK = 256, 21: tileJ = 32, 69: sche = dynamic, 75: chu = 15, 93: OrBlock = 0
[     0s]    INFO OpenTunerToolLocus: Run cfg_id: 85 time: 195.63794 cc: X cfg: 9: tileI = 128, 15: tileK = 8, 21: tileJ = 512, 69: sche = dynamic, 75: chu = 15, 93: OrBlock = 0
[     0s]    INFO OpenTunerToolLocus: Run cfg_id: 21 time: 711.375 cc: X cfg: 9: tileI = 4, 15: tileK = 128, 21: tileJ = 16, 69: sche = static, 75: chu = 21, 93: OrBlock = 0
[     0s]    INFO OpenTunerToolLocus: Run cfg_id: 86 time: 263.33618 cc: X cfg: 9: tileI = 8, 15: tileK = 4, 21: tileJ = 64, 69: sche = dynamic, 75: chu = 13, 93: OrBlock = 1
[     0s]    INFO OpenTunerToolLocus: Run cfg_id: 87 time: 114.65001 cc: X cfg: 9: tileI = 128, 15: tileK = 256, 21: tileJ = 32, 69: sche = dynamic, 75: chu = 12, 93: OrBlock = 0
[     0s]    INFO OpenTunerToolLocus: Run cfg_id: 88 time: 682.64198 cc: X cfg: 9: tileI = 128, 15: tileK = 256, 21: tileJ = 32, 69: sche = dynamic, 75: chu = 12, 93: OrBlock = 1
[     0s]    INFO OpenTunerToolLocus: Run cfg_id: 89 time: 359.39813 cc: X cfg: 9: tileI = 128, 15: tileK = 256, 21: tileJ = 8, 69: sche = dynamic, 75: chu = 12, 93: OrBlock = 0
[     0s]    INFO OpenTunerToolLocus: Run cfg_id: 90 time: 650.55799 cc: X cfg: 9: tileI = 128, 15: tileK = 256, 21: tileJ = 16, 69: sche = dynamic, 75: chu = 10, 93: OrBlock = 1
[     0s]    INFO OpenTunerToolLocus: Run cfg_id: 91 time: 140.9719 cc: X cfg: 9: tileI = 256, 15: tileK = 512, 21: tileJ = 16, 69: sche = static, 75: chu = 12, 93: OrBlock = 0
[     0s]    INFO OpenTunerToolLocus: Run cfg_id: 92 time: 355.42989 cc: X cfg: 9: tileI = 64, 15: tileK = 64, 21: tileJ = 32, 69: sche = dynamic, 75: chu = 12, 93: OrBlock = 1
[     0s]    INFO OpenTunerToolLocus: Run cfg_id: 93 time: 644.78016 cc: X cfg: 9: tileI = 128, 15: tileK = 128, 21: tileJ = 32, 69: sche = dynamic, 75: chu = 12, 93: OrBlock = 1
[     0s]    INFO OpenTunerToolLocus: Run cfg_id: 94 time: 228.48606 cc: X cfg: 9: tileI = 512, 15: tileK = 256, 21: tileJ = 32, 69: sche = static, 75: chu = 12, 93: OrBlock = 0
[     0s]    INFO OpenTunerToolLocus: Run cfg_id: 95 time: 172.01996 cc: X cfg: 9: tileI = 128, 15: tileK = 8, 21: tileJ = 32, 69: sche = dynamic, 75: chu = 12, 93: OrBlock = 0
[     0s]    INFO OpenTunerToolLocus: Run cfg_id: 22 time: 5720.83592 cc: X cfg: 9: tileI = 512, 15: tileK = 8, 21: tileJ = 2, 69: sche = static, 75: chu = 14, 93: OrBlock = 1
[     0s]    INFO OpenTunerToolLocus: Run cfg_id: 96 time: 114.49003 cc: X cfg: 9: tileI = 128, 15: tileK = 256, 21: tileJ = 32, 69: sche = dynamic, 75: chu = 7, 93: OrBlock = 0
[     0s]    INFO OpenTunerToolLocus: Run cfg_id: 97 time: 121.3479 cc: X cfg: 9: tileI = 128, 15: tileK = 256, 21: tileJ = 32, 69: sche = static, 75: chu = 7, 93: OrBlock = 0
[     0s]    INFO OpenTunerToolLocus: Run cfg_id: 98 time: 119.12584 cc: X cfg: 9: tileI = 64, 15: tileK = 256, 21: tileJ = 32, 69: sche = dynamic, 75: chu = 11, 93: OrBlock = 0
[     0s]    INFO OpenTunerToolLocus: Run cfg_id: 99 time: 118.21699 cc: X cfg: 9: tileI = 128, 15: tileK = 256, 21: tileJ = 32, 69: sche = dynamic, 75: chu = 13, 93: OrBlock = 0
[     0s]    INFO OpenTunerToolLocus: Run cfg_id: 100 time: 329.62108 cc: X cfg: 9: tileI = 128, 15: tileK = 256, 21: tileJ = 32, 69: sche = dynamic, 75: chu = 6, 93: OrBlock = 1
[     0s]    INFO OpenTunerToolLocus: Run cfg_id: 101 time: 219.66505 cc: X cfg: 9: tileI = 512, 15: tileK = 256, 21: tileJ = 32, 69: sche = dynamic, 75: chu = 5, 93: OrBlock = 0
[     0s]    INFO OpenTunerToolLocus: Run cfg_id: 102 time: 392.08794 cc: X cfg: 9: tileI = 128, 15: tileK = 256, 21: tileJ = 32, 69: sche = dynamic, 75: chu = 7, 93: OrBlock = 1
[     0s]    INFO OpenTunerToolLocus: Run cfg_id: 103 time: 114.72988 cc: X cfg: 9: tileI = 128, 15: tileK = 256, 21: tileJ = 32, 69: sche = dynamic, 75: chu = 8, 93: OrBlock = 0
[     0s]    INFO OpenTunerToolLocus: Run cfg_id: 104 time: 220.31498 cc: X cfg: 9: tileI = 128, 15: tileK = 256, 21: tileJ = 32, 69: sche = dynamic, 75: chu = 4, 93: OrBlock = 1
[     0s]    INFO OpenTunerToolLocus: Run cfg_id: 105 time: 122.08986 cc: X cfg: 9: tileI = 128, 15: tileK = 512, 21: tileJ = 32, 69: sche = dynamic, 75: chu = 7, 93: OrBlock = 0
[     0s]    INFO OpenTunerToolLocus: Run cfg_id: 106 time: 538.83314 cc: X cfg: 9: tileI = 2, 15: tileK = 2, 21: tileJ = 64, 69: sche = dynamic, 75: chu = 32, 93: OrBlock = 1
[     0s]    INFO OpenTunerToolLocus: Run cfg_id: 23 time: 373.94691 cc: X cfg: 9: tileI = 4, 15: tileK = 8, 21: tileJ = 32, 69: sche = dynamic, 75: chu = 29, 93: OrBlock = 0
[     0s]    INFO OpenTunerToolLocus: Run cfg_id: 107 time: 386.32798 cc: X cfg: 9: tileI = 128, 15: tileK = 256, 21: tileJ = 16, 69: sche = dynamic, 75: chu = 6, 93: OrBlock = 1
[     0s]    INFO OpenTunerToolLocus: Run cfg_id: 108 time: 734.83396 cc: X cfg: 9: tileI = 128, 15: tileK = 64, 21: tileJ = 2, 69: sche = dynamic, 75: chu = 24, 93: OrBlock = 0
[     0s]    INFO OpenTunerToolLocus: Run cfg_id: 109 time: 114.74895 cc: X cfg: 9: tileI = 128, 15: tileK = 256, 21: tileJ = 32, 69: sche = dynamic, 75: chu = 4, 93: OrBlock = 0
[     0s]    INFO OpenTunerToolLocus: Run cfg_id: 110 time: 136.49702 cc: X cfg: 9: tileI = 128, 15: tileK = 256, 21: tileJ = 16, 69: sche = dynamic, 75: chu = 7, 93: OrBlock = 0
[     0s]    INFO OpenTunerToolLocus: Run cfg_id: 24 time: 643.62812 cc: X cfg: 9: tileI = 2, 15: tileK = 8, 21: tileJ = 4, 69: sche = static, 75: chu = 13, 93: OrBlock = 0
[     0s]    INFO OpenTunerToolLocus: Run cfg_id: 111 time: 143.4741 cc: X cfg: 9: tileI = 32, 15: tileK = 256, 21: tileJ = 32, 69: sche = static, 75: chu = 7, 93: OrBlock = 0
[     0s]    INFO OpenTunerToolLocus: Run cfg_id: 112 time: 120.54014 cc: X cfg: 9: tileI = 128, 15: tileK = 512, 21: tileJ = 32, 69: sche = dynamic, 75: chu = 8, 93: OrBlock = 0
[     0s]    INFO OpenTunerToolLocus: Run cfg_id: 113 time: 285.35295 cc: X cfg: 9: tileI = 8, 15: tileK = 4, 21: tileJ = 32, 69: sche = dynamic, 75: chu = 24, 93: OrBlock = 1
[     0s]    INFO OpenTunerToolLocus: Run cfg_id: 114 time: 187.16383 cc: X cfg: 9: tileI = 128, 15: tileK = 256, 21: tileJ = 128, 69: sche = dynamic, 75: chu = 7, 93: OrBlock = 0
[     0s]    INFO OpenTunerToolLocus: Run cfg_id: 25 time: 305.34196 cc: X cfg: 9: tileI = 16, 15: tileK = 2, 21: tileJ = 256, 69: sche = static, 75: chu = 18, 93: OrBlock = 1
[     0s]    INFO OpenTunerToolLocus: Run cfg_id: 115 time: 226.94612 cc: X cfg: 9: tileI = 512, 15: tileK = 128, 21: tileJ = 32, 69: sche = dynamic, 75: chu = 7, 93: OrBlock = 0
[     0s]    INFO OpenTunerToolLocus: Run cfg_id: 116 time: 737.74385 cc: X cfg: 9: tileI = 128, 15: tileK = 256, 21: tileJ = 2, 69: sche = dynamic, 75: chu = 21, 93: OrBlock = 0
[     0s]    INFO OpenTunerToolLocus: Run cfg_id: 26 time: 1066.51592 cc: X cfg: 9: tileI = 512, 15: tileK = 64, 21: tileJ = 4, 69: sche = dynamic, 75: chu = 2, 93: OrBlock = 0
[     0s]    INFO OpenTunerToolLocus: Run cfg_id: 117 time: 307.51395 cc: X cfg: 9: tileI = 8, 15: tileK = 4, 21: tileJ = 512, 69: sche = static, 75: chu = 15, 93: OrBlock = 1
[     0s]    INFO OpenTunerToolLocus: Run cfg_id: 118 time: 120.15581 cc: X cfg: 9: tileI = 256, 15: tileK = 256, 21: tileJ = 32, 69: sche = static, 75: chu = 7, 93: OrBlock = 0
[     0s]    INFO OpenTunerToolLocus: Run cfg_id: 119 time: 119.31586 cc: X cfg: 9: tileI = 64, 15: tileK = 256, 21: tileJ = 32, 69: sche = dynamic, 75: chu = 7, 93: OrBlock = 0
[     0s]    INFO OpenTunerToolLocus: Run cfg_id: 27 time: 445.8921 cc: X cfg: 9: tileI = 4, 15: tileK = 128, 21: tileJ = 64, 69: sche = static, 75: chu = 29, 93: OrBlock = 0
[     0s]    INFO OpenTunerToolLocus: Run cfg_id: 120 time: 730.74985 cc: X cfg: 9: tileI = 32, 15: tileK = 256, 21: tileJ = 2, 69: sche = dynamic, 75: chu = 7, 93: OrBlock = 0
[     0s]    INFO OpenTunerToolLocus: Run cfg_id: 121 time: 408.29396 cc: X cfg: 9: tileI = 128, 15: tileK = 512, 21: tileJ = 32, 69: sche = dynamic, 75: chu = 7, 93: OrBlock = 1
[     0s]    INFO OpenTunerToolLocus: Run cfg_id: 122 time: 232.88894 cc: X cfg: 9: tileI = 8, 15: tileK = 4, 21: tileJ = 128, 69: sche = dynamic, 75: chu = 17, 93: OrBlock = 1
[     0s]    INFO OpenTunerToolLocus: Run cfg_id: 28 time: 961.36618 cc: X cfg: 9: tileI = 16, 15: tileK = 4, 21: tileJ = 2, 69: sche = dynamic, 75: chu = 6, 93: OrBlock = 0
[     0s]    INFO OpenTunerToolLocus: Run cfg_id: 123 time: 130.57303 cc: X cfg: 9: tileI = 64, 15: tileK = 256, 21: tileJ = 32, 69: sche = static, 75: chu = 7, 93: OrBlock = 0
[     0s]    INFO OpenTunerToolLocus: Run cfg_id: 124 time: 263.58199 cc: X cfg: 9: tileI = 64, 15: tileK = 2, 21: tileJ = 32, 69: sche = dynamic, 75: chu = 7, 93: OrBlock = 0
[     0s]    INFO OpenTunerToolLocus: Run cfg_id: 125 time: 453.96185 cc: X cfg: 9: tileI = 128, 15: tileK = 256, 21: tileJ = 16, 69: sche = dynamic, 75: chu = 7, 93: OrBlock = 1
[     0s]    INFO OpenTunerToolLocus: Run cfg_id: 126 time: 115.49711 cc: X cfg: 9: tileI = 128, 15: tileK = 128, 21: tileJ = 32, 69: sche = dynamic, 75: chu = 7, 93: OrBlock = 0
[     0s]    INFO OpenTunerToolLocus: Run cfg_id: 127 time: 219.13695 cc: X cfg: 9: tileI = 32, 15: tileK = 4, 21: tileJ = 512, 69: sche = static, 75: chu = 1, 93: OrBlock = 0
[     0s]    INFO OpenTunerToolLocus: Run cfg_id: 29 time: 260.74409 cc: X cfg: 9: tileI = 16, 15: tileK = 256, 21: tileJ = 64, 69: sche = dynamic, 75: chu = 7, 93: OrBlock = 1
[     0s]    INFO OpenTunerToolLocus: Run cfg_id: 128 time: 631.03604 cc: X cfg: 9: tileI = 128, 15: tileK = 256, 21: tileJ = 4, 69: sche = dynamic, 75: chu = 7, 93: OrBlock = 0
[     0s]    INFO OpenTunerToolLocus: Run cfg_id: 129 time: 114.88295 cc: X cfg: 9: tileI = 128, 15: tileK = 256, 21: tileJ = 32, 69: sche = dynamic, 75: chu = 23, 93: OrBlock = 0
[     0s]    INFO OpenTunerToolLocus: Run cfg_id: 130 time: 126.63484 cc: X cfg: 9: tileI = 128, 15: tileK = 512, 21: tileJ = 32, 69: sche = dynamic, 75: chu = 3, 93: OrBlock = 0
[     0s]    INFO OpenTunerToolLocus: Run cfg_id: 131 time: 887.52604 cc: X cfg: 9: tileI = 128, 15: tileK = 256, 21: tileJ = 32, 69: sche = dynamic, 75: chu = 27, 93: OrBlock = 1
[     0s]    INFO OpenTunerToolLocus: Run cfg_id: 30 time: 488.92307 cc: X cfg: 9: tileI = 8, 15: tileK = 256, 21: tileJ = 4, 69: sche = dynamic, 75: chu = 4, 93: OrBlock = 0
[     0s]    INFO OpenTunerToolLocus: Run cfg_id: 132 time: 114.66503 cc: X cfg: 9: tileI = 256, 15: tileK = 256, 21: tileJ = 32, 69: sche = static, 75: chu = 3, 93: OrBlock = 0
[     0s]    INFO OpenTunerToolLocus: Run cfg_id: 133 time: 227.16188 cc: X cfg: 9: tileI = 128, 15: tileK = 4, 21: tileJ = 512, 69: sche = static, 75: chu = 1, 93: OrBlock = 1
[     0s]    INFO OpenTunerToolLocus: Run cfg_id: 134 time: 494.02595 cc: X cfg: 9: tileI = 128, 15: tileK = 16, 21: tileJ = 32, 69: sche = dynamic, 75: chu = 7, 93: OrBlock = 1
[     0s]    INFO OpenTunerToolLocus: Run cfg_id: 135 time: 184.58605 cc: X cfg: 9: tileI = 128, 15: tileK = 256, 21: tileJ = 256, 69: sche = dynamic, 75: chu = 6, 93: OrBlock = 0
[     0s]    INFO OpenTunerToolLocus: Run cfg_id: 31 time: 2827.53181 cc: X cfg: 9: tileI = 32, 15: tileK = 128, 21: tileJ = 2, 69: sche = dynamic, 75: chu = 32, 93: OrBlock = 1
[     0s]    INFO OpenTunerToolLocus: Run cfg_id: 136 time: 386.73782 cc: X cfg: 9: tileI = 128, 15: tileK = 128, 21: tileJ = 32, 69: sche = dynamic, 75: chu = 7, 93: OrBlock = 1
[     0s]    INFO OpenTunerToolLocus: Run cfg_id: 137 time: 228.97792 cc: X cfg: 9: tileI = 512, 15: tileK = 256, 21: tileJ = 32, 69: sche = dynamic, 75: chu = 7, 93: OrBlock = 0
[     0s]    INFO OpenTunerToolLocus: Run cfg_id: 138 time: 219.16604 cc: X cfg: 9: tileI = 64, 15: tileK = 4, 21: tileJ = 512, 69: sche = static, 75: chu = 1, 93: OrBlock = 0
[     0s]    INFO OpenTunerToolLocus: Run cfg_id: 139 time: 197.37482 cc: X cfg: 9: tileI = 128, 15: tileK = 256, 21: tileJ = 16, 69: sche = dynamic, 75: chu = 3, 93: OrBlock = 1
[     0s]    INFO OpenTunerToolLocus: Run cfg_id: 140 time: 2726.16005 cc: X cfg: 9: tileI = 512, 15: tileK = 4, 21: tileJ = 32, 69: sche = dynamic, 75: chu = 7, 93: OrBlock = 0
[     0s]    INFO OpenTunerToolLocus: Run cfg_id: 32 time: 512.52604 cc: X cfg: 9: tileI = 32, 15: tileK = 64, 21: tileJ = 8, 69: sche = dynamic, 75: chu = 1, 93: OrBlock = 0
[     0s]    INFO OpenTunerToolLocus: Run cfg_id: 141 time: 169.82603 cc: X cfg: 9: tileI = 128, 15: tileK = 256, 21: tileJ = 64, 69: sche = dynamic, 75: chu = 7, 93: OrBlock = 0
[     0s]    INFO OpenTunerToolLocus: Run cfg_id: 142 time: 138.09705 cc: X cfg: 9: tileI = 256, 15: tileK = 256, 21: tileJ = 16, 69: sche = dynamic, 75: chu = 2, 93: OrBlock = 0
[     0s]    INFO OpenTunerToolLocus: Run cfg_id: 143 time: 121.27399 cc: X cfg: 9: tileI = 128, 15: tileK = 256, 21: tileJ = 32, 69: sche = dynamic, 75: chu = 32, 93: OrBlock = 0
[     0s]    INFO OpenTunerToolLocus: Run cfg_id: 144 time: 195.56117 cc: X cfg: 9: tileI = 16, 15: tileK = 16, 21: tileJ = 64, 69: sche = dynamic, 75: chu = 15, 93: OrBlock = 0
[     0s]    INFO OpenTunerToolLocus: Run cfg_id: 33 time: 524.74284 cc: X cfg: 9: tileI = 4, 15: tileK = 512, 21: tileJ = 32, 69: sche = dynamic, 75: chu = 6, 93: OrBlock = 0
[     0s]    INFO OpenTunerToolLocus: Run cfg_id: 145 time: 624.74322 cc: X cfg: 9: tileI = 128, 15: tileK = 256, 21: tileJ = 32, 69: sche = dynamic, 75: chu = 11, 93: OrBlock = 1
[     0s]    INFO OpenTunerToolLocus: Run cfg_id: 146 time: 185.817 cc: X cfg: 9: tileI = 128, 15: tileK = 256, 21: tileJ = 512, 69: sche = dynamic, 75: chu = 15, 93: OrBlock = 0
[     0s]    INFO OpenTunerToolLocus: Run cfg_id: 34 time: 449.26405 cc: X cfg: 9: tileI = 4, 15: tileK = 128, 21: tileJ = 64, 69: sche = static, 75: chu = 1, 93: OrBlock = 0
[     0s]    INFO OpenTunerToolLocus: Run cfg_id: 147 time: 137.39991 cc: X cfg: 9: tileI = 128, 15: tileK = 256, 21: tileJ = 16, 69: sche = dynamic, 75: chu = 4, 93: OrBlock = 0
[     0s]    INFO OpenTunerToolLocus: Run cfg_id: 148 time: 268.12696 cc: X cfg: 9: tileI = 16, 15: tileK = 64, 21: tileJ = 16, 69: sche = static, 75: chu = 23, 93: OrBlock = 0
[     0s]    INFO OpenTunerToolLocus: Run cfg_id: 149 time: 213.38487 cc: X cfg: 9: tileI = 128, 15: tileK = 4, 21: tileJ = 32, 69: sche = dynamic, 75: chu = 7, 93: OrBlock = 0
[     0s]    INFO OpenTunerToolLocus: Run cfg_id: 150 time: 114.69007 cc: X cfg: 9: tileI = 128, 15: tileK = 256, 21: tileJ = 32, 69: sche = dynamic, 75: chu = 25, 93: OrBlock = 0
[     0s]    INFO OpenTunerToolLocus: Run cfg_id: 151 time: 121.61803 cc: X cfg: 9: tileI = 128, 15: tileK = 512, 21: tileJ = 32, 69: sche = dynamic, 75: chu = 12, 93: OrBlock = 0
[     0s]    INFO OpenTunerToolLocus: Run cfg_id: 35 time: 449.06998 cc: X cfg: 9: tileI = 2, 15: tileK = 256, 21: tileJ = 512, 69: sche = dynamic, 75: chu = 6, 93: OrBlock = 1
[     0s]    INFO OpenTunerToolLocus: Run cfg_id: 152 time: 307.14893 cc: X cfg: 9: tileI = 8, 15: tileK = 256, 21: tileJ = 32, 69: sche = dynamic, 75: chu = 7, 93: OrBlock = 0
[     0s]    INFO OpenTunerToolLocus: Run cfg_id: 153 time: 218.56403 cc: X cfg: 9: tileI = 64, 15: tileK = 4, 21: tileJ = 512, 69: sche = dynamic, 75: chu = 1, 93: OrBlock = 1
[     0s]    INFO OpenTunerToolLocus: Run cfg_id: 154 time: 117.45596 cc: X cfg: 9: tileI = 128, 15: tileK = 256, 21: tileJ = 32, 69: sche = dynamic, 75: chu = 18, 93: OrBlock = 0
[     0s]    INFO OpenTunerToolLocus: Run cfg_id: 36 time: 675.68111 cc: X cfg: 9: tileI = 4, 15: tileK = 32, 21: tileJ = 8, 69: sche = dynamic, 75: chu = 26, 93: OrBlock = 0
[     0s]    INFO OpenTunerToolLocus: Run cfg_id: 155 time: 1155.71499 cc: X cfg: 9: tileI = 2, 15: tileK = 256, 21: tileJ = 32, 69: sche = dynamic, 75: chu = 7, 93: OrBlock = 0
[     0s]    INFO OpenTunerToolLocus: Run cfg_id: 156 time: 2601.46213 cc: X cfg: 9: tileI = 512, 15: tileK = 4, 21: tileJ = 512, 69: sche = dynamic, 75: chu = 1, 93: OrBlock = 0
[     0s]    INFO OpenTunerToolLocus: Run cfg_id: 157 time: 569.27013 cc: X cfg: 9: tileI = 128, 15: tileK = 256, 21: tileJ = 64, 69: sche = dynamic, 75: chu = 7, 93: OrBlock = 1
[     0s]    INFO OpenTunerToolLocus: Run cfg_id: 158 time: 378.48806 cc: X cfg: 9: tileI = 4, 15: tileK = 16, 21: tileJ = 16, 69: sche = static, 75: chu = 8, 93: OrBlock = 0
[     0s]    INFO OpenTunerToolLocus: Run cfg_id: 159 time: 158.58102 cc: X cfg: 9: tileI = 128, 15: tileK = 16, 21: tileJ = 32, 69: sche = dynamic, 75: chu = 7, 93: OrBlock = 0
[     0s]    INFO OpenTunerToolLocus: Run cfg_id: 160 time: 237.30421 cc: X cfg: 9: tileI = 16, 15: tileK = 4, 21: tileJ = 256, 69: sche = dynamic, 75: chu = 12, 93: OrBlock = 0
[     0s]    INFO OpenTunerToolLocus: Run cfg_id: 161 time: 194.45896 cc: X cfg: 9: tileI = 128, 15: tileK = 8, 21: tileJ = 64, 69: sche = static, 75: chu = 2, 93: OrBlock = 0
[     0s]    INFO OpenTunerToolLocus: Run cfg_id: 162 time: 115.73482 cc: X cfg: 9: tileI = 128, 15: tileK = 256, 21: tileJ = 32, 69: sche = static, 75: chu = 8, 93: OrBlock = 0
[     0s]    INFO OpenTunerToolLocus: Run cfg_id: 163 time: 567.43479 cc: X cfg: 9: tileI = 4, 15: tileK = 256, 21: tileJ = 32, 69: sche = dynamic, 75: chu = 7, 93: OrBlock = 1
[     0s]    INFO OpenTunerToolLocus: Run cfg_id: 164 time: 200.12593 cc: X cfg: 9: tileI = 32, 15: tileK = 8, 21: tileJ = 256, 69: sche = dynamic, 75: chu = 8, 93: OrBlock = 0
[     0s]    INFO OpenTunerToolLocus: Run cfg_id: 167 time: 754.20308 cc: X cfg: 9: tileI = 64, 15: tileK = 4, 21: tileJ = 64, 69: sche = dynamic, 75: chu = 13, 93: OrBlock = 1
[     0s]    INFO OpenTunerToolLocus: Run cfg_id: 168 time: 120.09501 cc: X cfg: 9: tileI = 64, 15: tileK = 256, 21: tileJ = 32, 69: sche = dynamic, 75: chu = 10, 93: OrBlock = 0
[     0s]    INFO OpenTunerToolLocus: Run cfg_id: 165 time: 198.26198 cc: X cfg: 9: tileI = 32, 15: tileK = 8, 21: tileJ = 256, 69: sche = static, 75: chu = 8, 93: OrBlock = 0
[     0s]    INFO OpenTunerToolLocus: Run cfg_id: 169 time: 839.36 cc: X cfg: 9: tileI = 2, 15: tileK = 8, 21: tileJ = 2, 69: sche = dynamic, 75: chu = 1, 93: OrBlock = 1
[     0s]    INFO OpenTunerToolLocus: Run cfg_id: 170 time: 138.8092 cc: X cfg: 9: tileI = 128, 15: tileK = 256, 21: tileJ = 16, 69: sche = static, 75: chu = 2, 93: OrBlock = 0
[     0s]    INFO OpenTunerToolLocus: Run cfg_id: 171 time: 136.82795 cc: X cfg: 9: tileI = 64, 15: tileK = 128, 21: tileJ = 16, 69: sche = static, 75: chu = 19, 93: OrBlock = 0
[     0s]    INFO OpenTunerToolLocus: Run cfg_id: 166 time: 201.44892 cc: X cfg: 9: tileI = 16, 15: tileK = 8, 21: tileJ = 128, 69: sche = dynamic, 75: chu = 16, 93: OrBlock = 1
[     0s]    INFO OpenTunerToolLocus: Run cfg_id: 172 time: 252.25306 cc: X cfg: 9: tileI = 128, 15: tileK = 256, 21: tileJ = 64, 69: sche = dynamic, 75: chu = 3, 93: OrBlock = 1
[     0s]    INFO OpenTunerToolLocus: Run cfg_id: 173 time: 676.01109 cc: X cfg: 9: tileI = 4, 15: tileK = 2, 21: tileJ = 8, 69: sche = static, 75: chu = 26, 93: OrBlock = 0
[     0s]    INFO OpenTunerToolLocus: Run cfg_id: 174 time: 199.37396 cc: X cfg: 9: tileI = 128, 15: tileK = 8, 21: tileJ = 128, 69: sche = dynamic, 75: chu = 1, 93: OrBlock = 1
[     0s]    INFO OpenTunerToolLocus: Run cfg_id: 175 time: 112.88905 cc: X cfg: 9: tileI = 128, 15: tileK = 128, 21: tileJ = 32, 69: sche = dynamic, 75: chu = 15, 93: OrBlock = 0
[     0s]    INFO OpenTunerToolLocus: Run cfg_id: 176 time: 117.16604 cc: X cfg: 9: tileI = 128, 15: tileK = 64, 21: tileJ = 32, 69: sche = dynamic, 75: chu = 15, 93: OrBlock = 0
[     0s]    INFO OpenTunerToolLocus: Run cfg_id: 177 time: 813.59506 cc: X cfg: 9: tileI = 128, 15: tileK = 64, 21: tileJ = 32, 69: sche = dynamic, 75: chu = 15, 93: OrBlock = 1
[     0s]    INFO OpenTunerToolLocus: Run cfg_id: 178 time: 815.70196 cc: X cfg: 9: tileI = 128, 15: tileK = 128, 21: tileJ = 32, 69: sche = dynamic, 75: chu = 15, 93: OrBlock = 1
[     0s]    INFO OpenTunerToolLocus: Run cfg_id: 179 time: 627.2459 cc: X cfg: 9: tileI = 128, 15: tileK = 128, 21: tileJ = 32, 69: sche = dynamic, 75: chu = 11, 93: OrBlock = 1
[     0s]    INFO OpenTunerToolLocus: Run cfg_id: 180 time: 139.189 cc: X cfg: 9: tileI = 256, 15: tileK = 128, 21: tileJ = 32, 69: sche = dynamic, 75: chu = 15, 93: OrBlock = 0
[     0s]    INFO OpenTunerToolLocus: Run cfg_id: 181 time: 138.05914 cc: X cfg: 9: tileI = 256, 15: tileK = 128, 21: tileJ = 32, 69: sche = dynamic, 75: chu = 12, 93: OrBlock = 0
[     0s]    INFO OpenTunerToolLocus: Run cfg_id: 182 time: 115.73601 cc: X cfg: 9: tileI = 128, 15: tileK = 128, 21: tileJ = 32, 69: sche = dynamic, 75: chu = 10, 93: OrBlock = 0
[     0s]    INFO OpenTunerToolLocus: Run cfg_id: 183 time: 143.01705 cc: X cfg: 9: tileI = 32, 15: tileK = 256, 21: tileJ = 32, 69: sche = static, 75: chu = 15, 93: OrBlock = 0
[     0s]    INFO OpenTunerToolLocus: Run cfg_id: 184 time: 171.65208 cc: X cfg: 9: tileI = 256, 15: tileK = 128, 21: tileJ = 64, 69: sche = dynamic, 75: chu = 15, 93: OrBlock = 0
[     0s]    INFO OpenTunerToolLocus: Run cfg_id: 185 time: 150.36488 cc: X cfg: 9: tileI = 128, 15: tileK = 128, 21: tileJ = 16, 69: sche = dynamic, 75: chu = 18, 93: OrBlock = 0
[     0s]    INFO OpenTunerToolLocus: Run cfg_id: 186 time: 169.75188 cc: X cfg: 9: tileI = 128, 15: tileK = 64, 21: tileJ = 64, 69: sche = dynamic, 75: chu = 15, 93: OrBlock = 0
[     0s]    INFO OpenTunerToolLocus: Run cfg_id: 187 time: 673.19202 cc: X cfg: 9: tileI = 128, 15: tileK = 64, 21: tileJ = 32, 69: sche = static, 75: chu = 12, 93: OrBlock = 1
[     0s]    INFO OpenTunerToolLocus: Run cfg_id: 188 time: 113.74593 cc: X cfg: 9: tileI = 128, 15: tileK = 64, 21: tileJ = 32, 69: sche = static, 75: chu = 11, 93: OrBlock = 0
[     0s]    INFO OpenTunerToolLocus: Run cfg_id: 189 time: 819.23819 cc: X cfg: 9: tileI = 128, 15: tileK = 128, 21: tileJ = 32, 69: sche = static, 75: chu = 15, 93: OrBlock = 1
[     0s]    INFO OpenTunerToolLocus: Run cfg_id: 190 time: 871.79613 cc: X cfg: 9: tileI = 128, 15: tileK = 128, 21: tileJ = 32, 69: sche = dynamic, 75: chu = 17, 93: OrBlock = 1
[     0s]    INFO OpenTunerToolLocus: Run cfg_id: 191 time: 579.09799 cc: X cfg: 9: tileI = 64, 15: tileK = 256, 21: tileJ = 32, 69: sche = dynamic, 75: chu = 18, 93: OrBlock = 1
[     0s]    INFO OpenTunerToolLocus: Run cfg_id: 192 time: 159.45387 cc: X cfg: 9: tileI = 128, 15: tileK = 64, 21: tileJ = 16, 69: sche = static, 75: chu = 15, 93: OrBlock = 0
[     0s]    INFO OpenTunerToolLocus: Run cfg_id: 193 time: 118.76607 cc: X cfg: 9: tileI = 128, 15: tileK = 128, 21: tileJ = 32, 69: sche = static, 75: chu = 10, 93: OrBlock = 0
[     0s]    INFO OpenTunerToolLocus: Run cfg_id: 194 time: 173.52295 cc: X cfg: 9: tileI = 128, 15: tileK = 128, 21: tileJ = 64, 69: sche = dynamic, 75: chu = 14, 93: OrBlock = 0
[     0s]    INFO OpenTunerToolLocus: Run cfg_id: 195 time: 117.65099 cc: X cfg: 9: tileI = 128, 15: tileK = 128, 21: tileJ = 32, 69: sche = dynamic, 75: chu = 13, 93: OrBlock = 0
[     0s]    INFO OpenTunerToolLocus: Run cfg_id: 196 time: 440.45305 cc: X cfg: 9: tileI = 64, 15: tileK = 128, 21: tileJ = 32, 69: sche = static, 75: chu = 15, 93: OrBlock = 1
[     0s]    INFO OpenTunerToolLocus: Run cfg_id: 197 time: 169.05499 cc: X cfg: 9: tileI = 128, 15: tileK = 128, 21: tileJ = 64, 69: sche = static, 75: chu = 14, 93: OrBlock = 0
[     0s]    INFO OpenTunerToolLocus: Run cfg_id: 198 time: 254.07791 cc: X cfg: 9: tileI = 32, 15: tileK = 128, 21: tileJ = 32, 69: sche = dynamic, 75: chu = 15, 93: OrBlock = 1
[     0s]    INFO OpenTunerToolLocus: Run cfg_id: 199 time: 871.1679 cc: X cfg: 9: tileI = 128, 15: tileK = 128, 21: tileJ = 32, 69: sche = dynamic, 75: chu = 20, 93: OrBlock = 1
[     0s]    INFO OpenTunerToolLocus: Run cfg_id: 200 time: 116.08291 cc: X cfg: 9: tileI = 128, 15: tileK = 128, 21: tileJ = 32, 69: sche = dynamic, 75: chu = 17, 93: OrBlock = 0
[     0s]    INFO OpenTunerToolLocus: Run cfg_id: 201 time: 137.61687 cc: X cfg: 9: tileI = 256, 15: tileK = 128, 21: tileJ = 32, 69: sche = dynamic, 75: chu = 14, 93: OrBlock = 0
[     0s]    INFO OpenTunerToolLocus: Run cfg_id: 202 time: 191.07485 cc: X cfg: 9: tileI = 128, 15: tileK = 128, 21: tileJ = 128, 69: sche = static, 75: chu = 15, 93: OrBlock = 0
[     0s]    INFO OpenTunerToolLocus: Run cfg_id: 203 time: 143.72706 cc: X cfg: 9: tileI = 128, 15: tileK = 32, 21: tileJ = 32, 69: sche = dynamic, 75: chu = 11, 93: OrBlock = 0
[     0s]    INFO OpenTunerToolLocus: Run cfg_id: 204 time: 115.83495 cc: X cfg: 9: tileI = 128, 15: tileK = 128, 21: tileJ = 32, 69: sche = static, 75: chu = 13, 93: OrBlock = 0
[     0s]    INFO OpenTunerToolLocus: Run cfg_id: 205 time: 119.65704 cc: X cfg: 9: tileI = 64, 15: tileK = 128, 21: tileJ = 32, 69: sche = dynamic, 75: chu = 15, 93: OrBlock = 0
[     0s]    INFO OpenTunerToolLocus: Run cfg_id: 206 time: 113.46507 cc: X cfg: 9: tileI = 128, 15: tileK = 128, 21: tileJ = 32, 69: sche = dynamic, 75: chu = 14, 93: OrBlock = 0
[     0s]    INFO OpenTunerToolLocus: Run cfg_id: 207 time: 192.6949 cc: X cfg: 9: tileI = 256, 15: tileK = 64, 21: tileJ = 32, 69: sche = dynamic, 75: chu = 10, 93: OrBlock = 0
[     0s]    INFO OpenTunerToolLocus: Run cfg_id: 208 time: 133.93903 cc: X cfg: 9: tileI = 128, 15: tileK = 128, 21: tileJ = 32, 69: sche = dynamic, 75: chu = 5, 93: OrBlock = 0
[     0s]    INFO OpenTunerToolLocus: Run cfg_id: 209 time: 115.92793 cc: X cfg: 9: tileI = 128, 15: tileK = 128, 21: tileJ = 32, 69: sche = static, 75: chu = 7, 93: OrBlock = 0
[     0s]    INFO OpenTunerToolLocus: Run cfg_id: 210 time: 236.28592 cc: X cfg: 9: tileI = 512, 15: tileK = 128, 21: tileJ = 32, 69: sche = dynamic, 75: chu = 15, 93: OrBlock = 0
[     0s]    INFO OpenTunerToolLocus: Run cfg_id: 211 time: 168.17689 cc: X cfg: 9: tileI = 128, 15: tileK = 128, 21: tileJ = 64, 69: sche = dynamic, 75: chu = 13, 93: OrBlock = 0
[     0s]    INFO OpenTunerToolLocus: Run cfg_id: 212 time: 118.03794 cc: X cfg: 9: tileI = 128, 15: tileK = 128, 21: tileJ = 32, 69: sche = dynamic, 75: chu = 18, 93: OrBlock = 0
